{
  "BootV1": [{
    "type": "script",
    "key": "BootV11",
    "url": "assets/canvas/scenes/BootV1.js"
  }],
  "PreloaderV1": [{
    "type": "script",
    "key": "PreloaderV11",
    "url": "assets/canvas/scenes/PreloaderV1.js"
  }],
  "MenuV1": [
    {
      "type": "script",
      "key": "MenuV11",
      "url": "assets/canvas/scenes/MenuV1.js"
    },
    {
      "type": "image",
      "key": "BBasePanel",
      "url": "assets/images/outgame/BBasePanel.png",
      "overwrite": false
    },
    {
      "type": "image",
      "key": "WBasePanel",
      "url": "assets/images/outgame/WBasePanel.png",
      "overwrite": false
    },
    {
      "type": "json",
      "key": "giantstep_quiz",
      "url": "assets/json/giantstep_quiz.json",
      "overwrite": false
    },
    {
      "type": "image",
      "key": "inputField",
      "url": "assets/images/outgame/inputField.png",
      "overwrite": false
    },
    {
      "type": "spritesheet",
      "key": "InputCursor2",
      "url": "assets/sprites/outgame/InputCursor2.png",
      "frameWidth": 4,
      "frameHeight": 16,
      "frameMax": -1,
      "margin": 0,
      "spacing": 0
    },
    {
      "type": "script",
      "key": "PrefabInputCursor",
      "url": "assets/canvas/prefabs/PrefabInputCursor.js"
    },
    {
      "type": "video",
      "key": "GIANTSTEP_1280X720",
      "urls": ["assets/videos/GIANTSTEP_1280X720.mp4"],
      "asBlob": false
    },
    {
      "type": "image",
      "key": "footer",
      "url": "assets/images/outgame/footer.png",
      "overwrite": false
    },
    {
      "type": "image",
      "key": "line",
      "url": "assets/images/outgame/line.png",
      "overwrite": false
    },
    {
      "type": "image",
      "key": "logo",
      "url": "assets/images/outgame/logo.png",
      "overwrite": false
    },
    {
      "type": "image",
      "key": "main title",
      "url": "assets/images/outgame/main title.png",
      "overwrite": false
    },
    {
      "type": "spritesheet",
      "key": "btn_base",
      "url": "assets/images/outgame/btn_base.png",
      "frameWidth": 352,
      "frameHeight": 58,
      "frameMax": -1,
      "margin": 0,
      "spacing": 0
    },
    {
      "type": "image",
      "key": "sub title",
      "url": "assets/images/outgame/sub title.png",
      "overwrite": false
    },
    {
      "type": "image",
      "key": "check line",
      "url": "assets/images/outgame/check line.png",
      "overwrite": false
    },
    {
      "type": "image",
      "key": "o icon",
      "url": "assets/images/outgame/o icon.png",
      "overwrite": false
    },
    {
      "type": "image",
      "key": "quiz bg",
      "url": "assets/images/outgame/quiz bg.png",
      "overwrite": false
    },
    {
      "type": "image",
      "key": "quiz icon",
      "url": "assets/images/outgame/quiz icon.png",
      "overwrite": false
    },
    {
      "type": "image",
      "key": "x icon",
      "url": "assets/images/outgame/x icon.png",
      "overwrite": false
    },
    {
      "type": "spritesheet",
      "key": "check",
      "url": "assets/images/outgame/check.png",
      "frameWidth": 59,
      "frameHeight": 52,
      "frameMax": -1,
      "margin": 0,
      "spacing": 0
    },
    {
      "type": "image",
      "key": "UIToaster",
      "url": "assets/images/outgame/UIToaster.png",
      "overwrite": false
    }
  ],
  "LevelV1": [{
    "type": "script",
    "key": "LevelV11",
    "url": "assets/canvas/scenes/LevelV1.js"
  }],
  "meta": {
    "generated": "1575597022155",
    "app": "Phaser Editor",
    "url": "http://phasereditor.boniatillo.com",
    "version": "1.0",
    "copyright": "Arian Fornaris (c) 2015,2016"
  }
}